{
	"the_end": [
		{
		"speaker": "",
		"text": "THE END",
		"pause": 5	
		}	
	],
	"wake_up": [
		{
		"speaker": "Dreaming Girl",
		"text": "...what a wonderful dream...",
		"pause": 5	
		},
		{
		"speaker": "Dreaming Girl",
		"text": "*snuggles ProstheticLittleFoot*",
		"pause": 5	
		},	
		{
		"speaker": "Dreaming Girl",
		"text": 	"Don't worry, Little Foot...I won't lose you, too.",
		"pause": 5	
		}
	],
	"yes_sweet_thing": [
		{
		"speaker": "Dreaming Girl",
		"text": "You sweet thing!  Of course you can take me away...",
		"pause": 5	
		}
	],
	"zzzzz": [
		{
		"speaker": "Dreaming Girl",
		"text": "...Zzzzzz....",
		"pause": 5
		} 
	],
	"intro_ask": [
		{
		"speaker": "LittleFoot",
		"text": "Have you seen my body?",
		"pause": 2
		}, {
		"speaker": "Dreaming Girl",
		"text": "..hm...zzzz...",
		"pause": 2
		}, {
		"speaker": "LittleFoot",
		"text": "Would you like to be my body?",
		"pause": 2
		}, {
		"speaker": "Dreaming Girl",
		"text": "...glrbksh...fl...zzzz",
		"pause": 2
		}
	]
}
