[gd_scene load_steps=4 format=2]

[ext_resource path="res://icon.png" type="Texture" id=1]
[ext_resource path="res://Components/SpeechBubble/SpeechBubble.tscn" type="PackedScene" id=2]
[ext_resource path="res://Components/SpeechBubble/Character.gd" type="Script" id=3]

[node name="Character" type="Node2D"]
position = Vector2( 512, 300 )
script = ExtResource( 3 )

[node name="Sprite" type="Sprite" parent="."]
position = Vector2( -214.54, -34.6563 )
texture = ExtResource( 1 )

[node name="SpeechBubble" parent="." instance=ExtResource( 2 )]
position = Vector2( -228.98, -184.936 )
