{
	"no_give_why_want_that": [
		{
		"speaker": "Log",
		"text": "Why would I want that?",
		"pause": 5	
		}	
	],
	"intro_ask": [
		{
		"speaker": "Log",
		    "text": "So polite of you to ask",
		"pause": 5	
		},
		{
		"speaker": "Log",
		    "text": "You can take me anywhere",
		"pause": 5	
		}	    
	],
	"intro_take": [
		{
		"speaker": "Log",
		"text": "You really should ask first",
		"pause": 5
		} 
	],
	"intro_ask": [
		{
		"speaker": "LittleFoot",
		"text": "Have you seen my body?",
		"pause": 2
		}, {
		"speaker": "Log",
		"text": "Sorry, no",
		"pause": 2
		}, {
		"speaker": "LittleFoot",
		"text": "Would you like to be my body?",
		"pause": 2
		}, {
		"speaker": "Log",
		"text": "No, thank you.  Good luck!",
		"pause": 2
		}
	]
}
