{
	"current": {
		"meet": "intro_meet",
		"ask": "intro_ask",
		"take": "no_honey_not_vinegar",
		"can_take": false,
		"can_give": false		
	},
	"states": {
		"intro_meet": {
			"conversation": "intro_meet"
		},
		"intro_ask": {
			"conversation": "yes_sweet_thing",
			"take": "yes_sweet_thing",
		},
		"no_honey_not_vinegar": {
			"conversation": "no_honey_not_vinegar",
			"take": "no_why_so_rude"
		},			
		"no_why_so_rude": {
			"conversation": "no_why_so_rude"
		},
		"yes_sweet_thing": {
			"conversation": "adventure_time",
			"can_take": true
		}
	}
}
